%YAML 1.1
%TAG !u! tag:unity3d.com,2011:
--- !u!114 &11400000
MonoBehaviour:
  m_ObjectHideFlags: 0
  m_CorrespondingSourceObject: {fileID: 0}
  m_PrefabInstance: {fileID: 0}
  m_PrefabAsset: {fileID: 0}
  m_GameObject: {fileID: 0}
  m_Enabled: 1
  m_EditorHideFlags: 0
  m_Script: {fileID: 11500000, guid: 38916728251016e479bd7c0901da847d, type: 3}
  m_Name: Keyboard Input Map
  m_EditorClassIdentifier: 
  inputTypeProcessor: 1
  eventMappers:
  - inputType: 5
    scriptableEvent: {fileID: 11400000, guid: 9671671ff9a021a4a80f18168030b501, type: 2}
  - inputType: 1
    scriptableEvent: {fileID: 11400000, guid: e5b40f52ce188174db2224e97732f28d, type: 2}
  - inputType: 3
    scriptableEvent: {fileID: 11400000, guid: a569a5a4f7dae9e42874073418786b54, type: 2}
  - inputType: 2
    scriptableEvent: {fileID: 11400000, guid: b233fbcbfb19c264fbf5d35976bb7946, type: 2}
