%YAML 1.1
%TAG !u! tag:unity3d.com,2011:
--- !u!114 &11400000
MonoBehaviour:
  m_ObjectHideFlags: 0
  m_CorrespondingSourceObject: {fileID: 0}
  m_PrefabInstance: {fileID: 0}
  m_PrefabAsset: {fileID: 0}
  m_GameObject: {fileID: 0}
  m_Enabled: 1
  m_EditorHideFlags: 0
  m_Script: {fileID: 11500000, guid: c0a3bdeb0a0bff849a761cb402932daa, type: 3}
  m_Name: Game Grid
  m_EditorClassIdentifier: 
  gridMinX: -3
  gridMaxX: 14
  gridMinY: 0
  gridMaxY: 40
