%YAML 1.1
%TAG !u! tag:unity3d.com,2011:
--- !u!114 &11400000
MonoBehaviour:
  m_ObjectHideFlags: 0
  m_CorrespondingSourceObject: {fileID: 0}
  m_PrefabInstance: {fileID: 0}
  m_PrefabAsset: {fileID: 0}
  m_GameObject: {fileID: 0}
  m_Enabled: 1
  m_EditorHideFlags: 0
  m_Script: {fileID: 11500000, guid: 1d2ae1c92b84e374299de8b05cbbd441, type: 3}
  m_Name: PauseScreenCommands
  m_EditorClassIdentifier: 
  stateCommands:
  - stateCommandType: 0
    scriptableEvent: {fileID: 0}
  - stateCommandType: 1
    scriptableEvent: {fileID: 11400000, guid: 23eee997888e8fc4cb24ba2ad9660c48, type: 2}
  - stateCommandType: 5
    scriptableEvent: {fileID: 11400000, guid: 65d7f0ee0764d7d4c97f93ea5049fd13, type: 2}
